<svg width="16" height="16" viewBox="0 0 16 16" fill="none" xmlns="http://www.w3.org/2000/svg">
<path fill-rule="evenodd" clip-rule="evenodd" d="M8.00008 15.3337C12.0502 15.3337 15.3334 12.0504 15.3334 8.00033C15.3334 3.95024 12.0502 0.666992 8.00008 0.666992C3.94999 0.666992 0.666748 3.95024 0.666748 8.00033C0.666748 12.0504 3.94999 15.3337 8.00008 15.3337ZM8.00008 13.3337C10.9456 13.3337 13.3334 10.9458 13.3334 8.00033C13.3334 5.05481 10.9456 2.66699 8.00008 2.66699C5.05456 2.66699 2.66675 5.05481 2.66675 8.00033C2.66675 10.9458 5.05456 13.3337 8.00008 13.3337ZM9.52868 5.52892C9.78903 5.26857 10.2111 5.26857 10.4715 5.52892C10.7318 5.78927 10.7318 6.21138 10.4715 6.47173L8.94289 8.00033L10.4715 9.52892C10.7318 9.78927 10.7318 10.2114 10.4715 10.4717C10.2111 10.7321 9.78903 10.7321 9.52868 10.4717L8.00008 8.94313L6.47149 10.4717C6.21114 10.7321 5.78903 10.7321 5.52868 10.4717C5.26833 10.2114 5.26833 9.78927 5.52868 9.52892L7.05727 8.00033L5.52868 6.47173C5.26833 6.21138 5.26833 5.78927 5.52868 5.52892C5.78903 5.26857 6.21114 5.26857 6.47149 5.52892L8.00008 7.05752L9.52868 5.52892Z" fill="#EB5757"/>
</svg>
